index,agency,href,drupal,duplicate
agency-0,Adirondack Park Agency,http://www.apa.state.ny.us/,0,
agency-1,"Aging, Office for the",http://aging.ny.gov/,,
agency-2,"Agriculture and Markets, Dept. of",http://www.agriculture.ny.gov/,0,
agency-3,"Alcoholic Beverage Control, Division of",http://www.abc.state.ny.us/,,
agency-4,"Alcoholism and Substance Abuse Services, Office of",http://www.oasas.ny.gov/,0,
agency-5,"Arts, Council on the",http://www.nysca.org/,1,
agency-6,Assembly,http://assembly.state.ny.us/,,
agency-7,"Attorney General, Office of (Department of Law)",http://www.ag.ny.gov/,,
agency-8,Authorities Budget Office,http://www.abo.ny.gov/,0,
agency-9,Battery Park City Authority,http://bpca.ny.gov/,0,
agency-10,Bridge Authority,http://www.nysba.state.ny.us/,0,
agency-11,,http://bpca.ny.gov/,,
agency-12,"Budget, Division of",http://www.budget.ny.gov/,0,
agency-13,Canal System,http://www.canals.ny.gov/,0,
agency-14,Capital Defender Office,http://www.nycdo.org/,0,
agency-15,Chief Information Officer and Office of Information Technology Services ,http://www.cio.ny.gov/,1,
agency-16,"Children and Families, Council on",http://ccf.ny.gov/,0,
agency-17,"Children and Family Services, Office of",http://www.ocfs.state.ny.us/main/,,
agency-18,City University of New York,http://www.cuny.edu/,,
agency-19,"Civil Service, Department of",http://www.cs.ny.gov/,,
agency-20,"Comptroller, Office of the",http://www.osc.state.ny.us/,,
agency-21,Consumer Protection Board,https://www.dos.ny.gov/consumerprotection/,,
agency-22,"Correction, Commission of",http://www.scoc.ny.gov/,,
agency-23,"Corrections and Community Supervision, Department of",http://www.doccs.ny.gov/,,
agency-24,"Court Administration, Office of",http://www.nycourts.gov/,,
agency-25,"Victim Services, Office of",https://ovs.ny.gov/,1,
agency-26,"Criminal Justice Services, Division of",http://www.criminaljustice.ny.gov/,,
agency-27,Developmental Disabilities Planning Council,http://ddpc.ny.gov/,1,
agency-28,Division of the Budget,http://www.budget.ny.gov/,,
agency-29,"Domestic Violence, Office for the Prevention of",http://www.opdv.ny.gov,,
agency-30,Dormitory Authority,http://www.dasny.org/,1,
agency-31,Education Department,http://www.nysed.gov/,,
agency-32,"Elections, Board of",http://www.elections.ny.gov/,,
agency-33,"Emergency Management, Office of",http://www.dhses.ny.gov/oem/,0,
agency-34,Empire State Development,http://www.esd.ny.gov/,1,
agency-35,"Employee Relations, Governor's Office for",https://www.goer.ny.gov/,0,
agency-36,Energy Research & Development Authority,http://nyserda.ny.gov/,,
agency-37,"Environmental Conservation, Department of",http://www.dec.ny.gov/,,
agency-38,Environmental Facilities Corporation,http://www.efc.ny.gov/,1,
agency-39,"Financial Services, Department of",http://www.dfs.ny.gov/,0,
agency-40,"Fire Prevention and Control, Office of",http://www.dhses.ny.gov/ofpc/,0,
agency-41,Gaming Commission,https://www.gaming.ny.gov/,0,
agency-42,"General Services, Office of",http://www.ogs.ny.gov/,0,
agency-43,"Governor, Office of the (Executive Chamber)",http://www.governor.ny.gov/,1,
agency-44,"Health, Department of",http://www.health.ny.gov/,0,
agency-45,Higher Education Services Corporation,https://www.hesc.ny.gov/,1,
agency-46,"Homeland Security and Emergency Services, Division of ",http://www.dhses.ny.gov/,0,
agency-47,Homes and Community Renewal,http://www.nyshcr.org/,0,
agency-48,Hudson River Valley Greenway,http://www.hudsongreenway.ny.gov/home.aspx,0,
agency-49,"Human Rights, Division of",http://www.dhr.ny.gov/,1,
agency-50,"Inspector General, Office of the",https://ig.ny.gov/,1,
agency-51,Insurance Fund,http://ww3.nysif.com/,0,
agency-52,"Judicial Conduct, Commission on",http://www.scjc.state.ny.us/,,
agency-53,Justice Center for the Protection of  People with Special Needs,https://www.justicecenter.ny.gov/,1,
agency-54,"Labor, Department of",https://www.labor.ny.gov/home/,,
agency-55,Lake George Park Commission,http://www.lgpc.state.ny.us,,
agency-56,Law Revision Commission,https://lawrevision.state.ny.us/,,
agency-57,"Public Ethics, Joint Commission on  ",http://www.jcope.ny.gov/,1,
agency-58,"Medicaid Inspector General, Office of the",https://omig.ny.gov/,0,
agency-59,"Mental Health, Office of",http://www.omh.ny.gov/,0,
agency-60,"Military and Naval Affairs, Division of",http://dmna.state.ny.us/,,
agency-61,"Motor Vehicles, Department of",http://www.dmv.ny.gov,1,
agency-62,Olympic Regional Development Authority,http://www.orda.org/newsite/,,
agency-63,"Parks, Recreation and Historic Preservation, Office of",http://nysparks.state.ny.us/,0,
agency-64,"People with Developmental Disabilities, Office for",http://www.opwdd.ny.gov,1,
agency-65,Port Authority of New York and New Jersey,http://www.panynj.gov/,0,
agency-66,Power Authority,http://www.nypa.gov/,0,
agency-67,"Prevention of Domestic Violence, Office for the",http://www.opdv.ny.gov/,0,
agency-68,Public Employment Relations Board,http://www.perb.ny.gov/,0,
agency-69,"Public Ethics, Joint Commission on ",http://www.jcope.ny.gov/,1,1
agency-70,"Public Service, Department of ",http://www.dps.ny.gov/,0,
agency-71,"Taxation and Finance, Department of",http://www.tax.ny.gov/,0,
agency-72,Department of State,http://www.dos.ny.gov/,0,
agency-73,Empire State Development,http://www.esd.ny.gov/,1,1
agency-74,"Science, Technology and Innovation, Division of",http://esd.ny.gov/nystar/,1,1
agency-75,Senate,https://www.nysenate.gov/,,
agency-76,State Police,https://www.troopers.ny.gov/,0,
agency-77,State University of New York,http://www.suny.edu/,,
agency-78,"State, Department of",http://www.dos.ny.gov/,0,1
agency-79,"Tax Appeals, Division of",http://www.dta.ny.gov/,0,
agency-80,"Taxation and Finance, Department of",http://www.tax.ny.gov/,1,1
agency-81,"Temporary and Disability Assistance, Office of",https://otda.ny.gov/,0,
agency-82,Thruway Authority,http://www.thruway.ny.gov/,0,
agency-83,"Traffic Safety Committee, Governor's",http://www.safeny.ny.gov,0,
agency-84,"Transportation, Department of",https://www.dot.ny.gov/index,0,
agency-85,Unified Court System,http://www.nycourts.gov/home.htm,,
agency-86,"Veteran's Affairs, Division of",http://www.veterans.ny.gov/,1,
agency-87,"Victim Services, Office of",http://www.ovs.ny.gov/,,1
agency-88,"Welfare Inspector General, Office of the",http://www.owig.state.ny.us/,0,
agency-89,Workers Compensation Board,http://www.wcb.ny.gov/,0,
