"","class","performance.low","performance.high","performance.p","pwa.low","pwa.high","pwa.p","seo.low","seo.high","seo.p","accessibility.low","accessibility.high","accessibility.p","best.practices.low","best.practices.high","best.practices.p"
"1","City",-0.195660446468286,-0.0576895535317137,0.000541916037768743,-0.00860573865548185,0.0587557386554819,0.142338532629011,-0.0644328716369458,0.0342828716369457,0.544106424065179,0.134956868511237,0.237543131488763,2.64262371760342e-10,0.000432762839752847,0.0897172371602471,0.0478898097664339
"2","Town",-0.282322592434718,-0.229490947656053,1.71036539073236e-55,-0.0117101765047215,0.0311293494370524,0.366526206103405,-0.0250490713337881,0.0560367025181958,0.443229830202065,0.181187872958006,0.250487539335846,8.07596797274394e-17,-0.018693865137803,0.057630711176667,0.307078861569759
"3","Village",-0.28872061768613,-0.225768298570027,1.96320059612228e-44,-0.0164126428494574,0.0289095715963862,0.583312998921381,-0.0198841586277066,0.0627926352861833,0.300254073573177,0.171608117827385,0.245023911512468,9.35321700708051e-17,-0.0256600657029847,0.0512682564120311,0.503600736306947
"4","County",-0.15538185405681,-0.0458681459431899,0.00053646881570426,0.0176270783049578,0.0786229216950422,0.00237561332740463,-0.0588030783605916,0.0437764826159107,0.771005882299179,0.0537158168235619,0.166700849843105,0.00021828126984997,0.000373566938633382,0.0892097663947,0.0481658902009342
"5","Major Urban Center",-0.0976428051073715,-0.00235719489262846,0.0407101742676373,0.0424174072517616,0.116332592748238,0.000149117536319651,-0.064593502580493,0.114593502580493,0.569185225522932,0.0195016445095976,0.205498355490402,0.0202973946393345,-0.0154428967123333,0.106692896712333,0.137987307599654
"6","Rural",-0.32829662390527,-0.26271956314509,5.7458724987225e-52,-0.0247721168647276,0.020196758013053,0.839337020361942,-0.0219050204114796,0.060411552477988,0.349649635965092,0.189670139348839,0.262521072052586,3.21580229972031e-18,-0.0307341136059323,0.0463798482030886,0.683011510464895
"7","Smaller Urban Center (Downstate)",-0.228040922585457,-0.139105303829637,3.11874902323886e-13,-0.0142384629498388,0.0474224252139897,0.288786179696084,-0.0556935265683904,0.0385473001532961,0.717480306133316,0.106555287564713,0.203421347949305,4.47399915653196e-09,-0.0198241089106778,0.0609572864807714,0.310264936823998
"8","Smaller Urban Center (Upstate)",-0.287272642305761,-0.199734500551381,3.18384240274095e-22,-0.0262285334199871,0.0262071048485585,0.999354591694721,-0.0367119039511618,0.0505481108477134,0.751343116180942,0.170665646908969,0.250234353091031,7.59091348999712e-17,-0.0225493370865011,0.0571564799436439,0.385669159348102
"9","Suburb",-0.205959923071805,-0.132948447968919,2.16385761311452e-17,0.0167799354590046,0.0647076211020814,0.00113274194580863,-0.0409691960632503,0.0443101051541594,0.937442087781887,0.177388729082368,0.256747634553995,1.38411212909774e-17,0.00459971011079356,0.0832226880792517,0.0295352476740226
